<?xml version="1.0" encoding="UTF-8"?>
<svg height="24px" viewBox="0 0 24 24" width="24px" xmlns="http://www.w3.org/2000/svg" xmlns:xlink="http://www.w3.org/1999/xlink">
    <filter id="a" height="100%" width="100%" x="0%" y="0%">
        <feColorMatrix color-interpolation-filters="sRGB" values="0 0 0 0 1 0 0 0 0 1 0 0 0 0 1 0 0 0 1 0"/>
    </filter>
    <mask id="b">
        <g filter="url(#a)">
            <path d="m -2.4 -2.4 h 28.8 v 28.8 h -28.8 z" fill-opacity="0.25"/>
        </g>
    </mask>
    <clipPath id="c">
        <path d="m 0 0 h 800 v 800 h -800 z"/>
    </clipPath>
    <mask id="d">
        <g filter="url(#a)">
            <path d="m -2.4 -2.4 h 28.8 v 28.8 h -28.8 z" fill-opacity="0.5"/>
        </g>
    </mask>
    <clipPath id="e">
        <path d="m 0 0 h 800 v 800 h -800 z"/>
    </clipPath>
    <mask id="f">
        <g filter="url(#a)">
            <path d="m -2.4 -2.4 h 28.8 v 28.8 h -28.8 z" fill-opacity="0.25"/>
        </g>
    </mask>
    <clipPath id="g">
        <path d="m 0 0 h 800 v 800 h -800 z"/>
    </clipPath>
    <mask id="h">
        <g filter="url(#a)">
            <path d="m -2.4 -2.4 h 28.8 v 28.8 h -28.8 z" fill-opacity="0.5"/>
        </g>
    </mask>
    <clipPath id="i">
        <path d="m 0 0 h 800 v 800 h -800 z"/>
    </clipPath>
    <mask id="j">
        <g filter="url(#a)">
            <path d="m -2.4 -2.4 h 28.8 v 28.8 h -28.8 z" fill-opacity="0.5"/>
        </g>
    </mask>
    <clipPath id="k">
        <path d="m 0 0 h 800 v 800 h -800 z"/>
    </clipPath>
    <mask id="l">
        <g filter="url(#a)">
            <path d="m -2.4 -2.4 h 28.8 v 28.8 h -28.8 z" fill-opacity="0.5"/>
        </g>
    </mask>
    <clipPath id="m">
        <path d="m 0 0 h 800 v 800 h -800 z"/>
    </clipPath>
    <g mask="url(#b)">
        <g clip-path="url(#c)" transform="matrix(1 0 0 1 -202 -280)">
            <path d="m 87 289 h 6 v 5 h -6 z m 0 0"/>
        </g>
    </g>
    <g mask="url(#d)">
        <g clip-path="url(#e)" transform="matrix(1 0 0 1 -202 -280)">
            <path d="m 83.007812 308.34375 v 5.351562 h 4.652344 c 0.183594 -0.769531 0.988282 -1.367187 2.003906 -1.480468 v -3.871094 z m 0 0"/>
        </g>
    </g>
    <g mask="url(#f)">
        <g clip-path="url(#g)" transform="matrix(1 0 0 1 -202 -280)">
            <path d="m 90.347656 308.34375 v 3.871094 c 1.019532 0.113281 1.828125 0.707031 2.011719 1.480468 h 4.648437 v -5.351562 z m 0 0"/>
        </g>
    </g>
    <g mask="url(#h)">
        <g clip-path="url(#i)" transform="matrix(1 0 0 1 -202 -280)">
            <path d="m 167.003906 285 h 4.992188 c 0.003906 0 0.003906 0 0.003906 0.003906 v 2.992188 c 0 0.003906 0 0.003906 -0.003906 0.003906 h -4.992188 c -0.003906 0 -0.003906 0 -0.003906 -0.003906 v -2.992188 c 0 -0.003906 0 -0.003906 0.003906 -0.003906 z m 0 0"/>
        </g>
    </g>
    <g mask="url(#j)">
        <g clip-path="url(#k)" transform="matrix(1 0 0 1 -202 -280)">
            <path d="m 146 283 c -2.023438 0.015625 -4 0.492188 -4 2 v 1 h 5 v -1 h 1 v -2 z m 0 0"/>
        </g>
    </g>
    <g mask="url(#l)">
        <g clip-path="url(#m)" transform="matrix(1 0 0 1 -202 -280)">
            <path d="m 152 283 v 2 h 1 v 1 h 5 v -1 c 0 -1.507812 -1.976562 -1.984375 -4 -2 z m 0 0"/>
        </g>
    </g>
    <path d="m 4 2 c -1.089844 0 -2 0.910156 -2 2 v 4 c 0 1.089844 0.910156 2 2 2 h 4 c 1.089844 0 2 -0.910156 2 -2 v -4 c 0 -1.089844 -0.910156 -2 -2 -2 z m 12 0 c -1.089844 0 -2 0.910156 -2 2 v 4 c 0 1.089844 0.910156 2 2 2 h 4 c 1.089844 0 2 -0.910156 2 -2 v -4 c 0 -1.089844 -0.910156 -2 -2 -2 z m -12 12 c -1.089844 0 -2 0.910156 -2 2 v 4 c 0 1.089844 0.910156 2 2 2 h 4 c 1.089844 0 2 -0.910156 2 -2 v -4 c 0 -1.089844 -0.910156 -2 -2 -2 z m 12 0 c -1.089844 0 -2 0.910156 -2 2 v 4 c 0 1.089844 0.910156 2 2 2 h 4 c 1.089844 0 2 -0.910156 2 -2 v -4 c 0 -1.089844 -0.910156 -2 -2 -2 z m 0 0" fill="#222222"/>
</svg>
