<?xml version="1.0" encoding="UTF-8" standalone="no"?>
<svg
   width="16px"
   height="16px"
   viewBox="0 0 16 16"
   version="1.1"
   id="svg5"
   sodipodi:docname="nintendo-ds-layouts-symbolic.svg"
   inkscape:version="1.3 (0e150ed6c4, 2023-07-21)"
   xmlns:inkscape="http://www.inkscape.org/namespaces/inkscape"
   xmlns:sodipodi="http://sodipodi.sourceforge.net/DTD/sodipodi-0.dtd"
   xmlns="http://www.w3.org/2000/svg"
   xmlns:svg="http://www.w3.org/2000/svg">
  <defs
     id="defs5">
    <inkscape:path-effect
       effect="fillet_chamfer"
       id="path-effect16"
       is_visible="true"
       lpeversion="1"
       nodesatellites_param="F,0,0,1,0,0,0,1 @ F,0,0,1,0,1,0,1 @ F,0,0,1,0,1.9863348,0,1 @ F,0,0,1,0,1,0,1 @ F,0,0,1,0,0,0,1"
       radius="1"
       unit="px"
       method="auto"
       mode="F"
       chamfer_steps="1"
       flexible="false"
       use_knot_distance="true"
       apply_no_radius="true"
       apply_with_radius="true"
       only_selected="false"
       hide_knots="false" />
    <inkscape:path-effect
       effect="spiro"
       id="path-effect15"
       is_visible="true"
       lpeversion="1" />
    <inkscape:path-effect
       effect="offset"
       id="path-effect14"
       is_visible="true"
       lpeversion="1.2"
       linejoin_type="miter"
       unit="mm"
       offset="0"
       miter_limit="4"
       attempt_force_join="false"
       update_on_knot_move="true" />
    <inkscape:path-effect
       effect="taper_stroke"
       id="path-effect13"
       is_visible="true"
       lpeversion="1"
       stroke_width="1"
       subpath="1"
       attach_start="0.2"
       end_offset="0.2"
       start_smoothing="0.5"
       end_smoothing="0.5"
       jointype="extrapolated"
       start_shape=""
       end_shape=""
       miter_limit="100" />
  </defs>
  <sodipodi:namedview
     id="namedview5"
     pagecolor="#ffffff"
     bordercolor="#999999"
     borderopacity="1"
     inkscape:showpageshadow="0"
     inkscape:pageopacity="0"
     inkscape:pagecheckerboard="0"
     inkscape:deskcolor="#d1d1d1"
     showgrid="true"
     inkscape:zoom="25.399161"
     inkscape:cx="-3.4449956"
     inkscape:cy="5.8072784"
     inkscape:current-layer="svg5"
     showguides="true">
    <inkscape:grid
       id="grid6"
       units="px"
       originx="0"
       originy="0"
       spacingx="1"
       spacingy="1"
       empcolor="#3f3fff"
       empopacity="0.25098039"
       color="#3f3fff"
       opacity="0.1254902"
       empspacing="5"
       dotted="false"
       gridanglex="30"
       gridanglez="30"
       visible="true" />
  </sodipodi:namedview>
  <path
     id="path1-6"
     d="M 4,0 C 2.3398564,0 1,1.3398564 1,3 v 3 4 3 c 0,1.660142 1.3398564,3 3,3 h 8 c 1.660142,0 3,-1.339858 3,-3 V 10 6 3 C 15,1.3398564 13.660142,0 12,0 Z m 2,2 h 4 c 0.554681,0 1,0.4453166 1,1 v 3 c 0,0.5546828 -0.44532,1 -1,1 H 6 C 5.4453172,7 5,6.5546828 5,6 V 3 C 5,2.9306652 5.0063014,2.8621363 5.0195312,2.796875 5.1123522,2.3400449 5.514652,2 6,2 Z m -3,8 c 0.5522847,0 1,0.447715 1,1 0,0.552285 -0.4477153,1 -1,1 C 2.4477153,12 2,11.552285 2,11 2,10.447715 2.4477153,10 3,10 Z M 6,9 h 4 c 0.55468,0 1,0.4453172 1,1 v 3 c 0,0.554681 -0.445319,1 -1,1 H 6 C 5.4453162,14 5,13.554681 5,13 V 10 C 5,9.4453172 5.4453172,9 6,9 Z m 7,1 c 0.552285,0 1,0.447715 1,1 0,0.552285 -0.447715,1 -1,1 -0.552285,0 -1,-0.447715 -1,-1 0,-0.552285 0.447715,-1 1,-1 z"
     sodipodi:nodetypes="ssccssssccssssssssssscssssssssssssssssssss" />
  <rect
     style="font-variation-settings:'wght' 800;fill:#000000;fill-opacity:1;stroke-width:1.00157;stroke-linecap:round;stroke-opacity:0.154435;opacity:0.25"
     id="rect2"
     width="7.0092301"
     height="7"
     x="4.2601385"
     y="8" />
</svg>
