<?xml version="1.0" encoding="UTF-8"?>
<svg height="24px" viewBox="0 0 24 24" width="24px" xmlns="http://www.w3.org/2000/svg" xmlns:xlink="http://www.w3.org/1999/xlink">
    <filter id="a" height="100%" width="100%" x="0%" y="0%">
        <feColorMatrix color-interpolation-filters="sRGB" values="0 0 0 0 1 0 0 0 0 1 0 0 0 0 1 0 0 0 1 0"/>
    </filter>
    <mask id="b">
        <g filter="url(#a)">
            <path d="m -2.4 -2.4 h 28.8 v 28.8 h -28.8 z" fill-opacity="0.25"/>
        </g>
    </mask>
    <clipPath id="c">
        <path d="m 0 0 h 800 v 800 h -800 z"/>
    </clipPath>
    <mask id="d">
        <g filter="url(#a)">
            <path d="m -2.4 -2.4 h 28.8 v 28.8 h -28.8 z" fill-opacity="0.5"/>
        </g>
    </mask>
    <clipPath id="e">
        <path d="m 0 0 h 800 v 800 h -800 z"/>
    </clipPath>
    <mask id="f">
        <g filter="url(#a)">
            <path d="m -2.4 -2.4 h 28.8 v 28.8 h -28.8 z" fill-opacity="0.25"/>
        </g>
    </mask>
    <clipPath id="g">
        <path d="m 0 0 h 800 v 800 h -800 z"/>
    </clipPath>
    <mask id="h">
        <g filter="url(#a)">
            <path d="m -2.4 -2.4 h 28.8 v 28.8 h -28.8 z" fill-opacity="0.25"/>
        </g>
    </mask>
    <clipPath id="i">
        <path d="m 0 0 h 800 v 800 h -800 z"/>
    </clipPath>
    <mask id="j">
        <g filter="url(#a)">
            <path d="m -2.4 -2.4 h 28.8 v 28.8 h -28.8 z" fill-opacity="0.75"/>
        </g>
    </mask>
    <clipPath id="k">
        <path d="m 0 0 h 800 v 800 h -800 z"/>
    </clipPath>
    <mask id="l">
        <g filter="url(#a)">
            <path d="m -2.4 -2.4 h 28.8 v 28.8 h -28.8 z" fill-opacity="0.5"/>
        </g>
    </mask>
    <clipPath id="m">
        <path d="m 0 0 h 800 v 800 h -800 z"/>
    </clipPath>
    <mask id="n">
        <g filter="url(#a)">
            <path d="m -2.4 -2.4 h 28.8 v 28.8 h -28.8 z" fill-opacity="0.5"/>
        </g>
    </mask>
    <clipPath id="o">
        <path d="m 0 0 h 800 v 800 h -800 z"/>
    </clipPath>
    <mask id="p">
        <g filter="url(#a)">
            <path d="m -2.4 -2.4 h 28.8 v 28.8 h -28.8 z" fill-opacity="0.75"/>
        </g>
    </mask>
    <clipPath id="q">
        <path d="m 0 0 h 800 v 800 h -800 z"/>
    </clipPath>
    <mask id="r">
        <g filter="url(#a)">
            <path d="m -2.4 -2.4 h 28.8 v 28.8 h -28.8 z" fill-opacity="0.75"/>
        </g>
    </mask>
    <clipPath id="s">
        <path d="m 0 0 h 800 v 800 h -800 z"/>
    </clipPath>
    <g mask="url(#b)">
        <g clip-path="url(#c)" transform="matrix(1 0 0 1 -426 -280)">
            <path d="m 87 289 h 6 v 5 h -6 z m 0 0"/>
        </g>
    </g>
    <g mask="url(#d)">
        <g clip-path="url(#e)" transform="matrix(1 0 0 1 -426 -280)">
            <path d="m 83.007812 308.34375 v 5.351562 h 4.652344 c 0.183594 -0.769531 0.988282 -1.367187 2.003906 -1.480468 v -3.871094 z m 0 0"/>
        </g>
    </g>
    <g mask="url(#f)">
        <g clip-path="url(#g)" transform="matrix(1 0 0 1 -426 -280)">
            <path d="m 90.347656 308.34375 v 3.871094 c 1.019532 0.113281 1.828125 0.707031 2.011719 1.480468 h 4.648437 v -5.351562 z m 0 0"/>
        </g>
    </g>
    <g mask="url(#h)">
        <g clip-path="url(#i)" transform="matrix(1 0 0 1 -426 -280)">
            <path d="m 238 294 h 8 v 6 h -8 z m 0 0"/>
        </g>
    </g>
    <g mask="url(#j)">
        <g clip-path="url(#k)" transform="matrix(1 0 0 1 -426 -280)">
            <path d="m 230 290 h 24 v 3 h -24 z m 0 0"/>
        </g>
    </g>
    <g mask="url(#l)">
        <g clip-path="url(#m)" transform="matrix(1 0 0 1 -426 -280)">
            <path d="m 245.996094 313.175781 v 1.101563 l -1 1 l -1 -1 v -1.09375 c -0.847656 0.300781 -1.519532 0.972656 -1.820313 1.820312 h 1.121094 l 1 1 l -1 1 h -1.121094 c 0.300781 0.847656 0.972657 1.519532 1.820313 1.820313 v -1.140625 l 1 -1 l 1 1 v 1.140625 c 0.847656 -0.300781 1.519531 -0.972657 1.820312 -1.820313 h -1.109375 l -1 -1 l 1 -1 h 1.117188 c -0.300781 -0.855468 -0.972657 -1.527344 -1.828125 -1.828125 z m 0 0"/>
        </g>
    </g>
    <g mask="url(#n)">
        <g clip-path="url(#o)" transform="matrix(1 0 0 1 -426 -280)">
            <path d="m 248 316 c 0 1.65625 -1.34375 3 -3 3 s -3 -1.34375 -3 -3 s 1.34375 -3 3 -3 s 3 1.34375 3 3 z m 0 0"/>
        </g>
    </g>
    <path d="m 1 7 c -0.554688 0 -1 0.445312 -1 1 v 8 c 0 0.554688 0.445312 1 1 1 h 22 c 0.554688 0 1 -0.445312 1 -1 v -8 c 0 -0.554688 -0.445312 -1 -1 -1 z m 8.25 1 h 4.5 c 0.136719 0 0.25 0.113281 0.25 0.25 v 0.5 c 0 0.136719 -0.113281 0.25 -0.25 0.25 h -4.5 c -0.136719 0 -0.25 -0.113281 -0.25 -0.25 v -0.5 c 0 -0.136719 0.113281 -0.25 0.25 -0.25 z m -5.984375 2 h 1.46875 c 0.148437 0 0.265625 0.117188 0.265625 0.265625 v 1.734375 h 1.734375 c 0.148437 0 0.265625 0.117188 0.265625 0.265625 v 1.46875 c 0 0.148437 -0.117188 0.265625 -0.265625 0.265625 h -1.734375 v 1.734375 c 0 0.148437 -0.117188 0.265625 -0.265625 0.265625 h -1.46875 c -0.148437 0 -0.265625 -0.117188 -0.265625 -0.265625 v -1.734375 h -1.734375 c -0.148437 0 -0.265625 -0.117188 -0.265625 -0.265625 v -1.46875 c 0 -0.148437 0.117188 -0.265625 0.265625 -0.265625 h 1.734375 v -1.734375 c 0 -0.148437 0.117188 -0.265625 0.265625 -0.265625 z m 5.984375 1 h 4.5 c 0.136719 0 0.25 0.113281 0.25 0.25 v 0.5 c 0 0.136719 -0.113281 0.25 -0.25 0.25 h -4.5 c -0.136719 0 -0.25 -0.113281 -0.25 -0.25 v -0.5 c 0 -0.136719 0.113281 -0.25 0.25 -0.25 z m 8.25 2 c 0.828125 0 1.5 0.671875 1.5 1.5 s -0.671875 1.5 -1.5 1.5 s -1.5 -0.671875 -1.5 -1.5 s 0.671875 -1.5 1.5 -1.5 z m 4 0 c 0.828125 0 1.5 0.671875 1.5 1.5 s -0.671875 1.5 -1.5 1.5 s -1.5 -0.671875 -1.5 -1.5 s 0.671875 -1.5 1.5 -1.5 z m -12.027344 1 h 0.027344 h 1 c 0.277344 0 0.5 0.222656 0.5 0.5 s -0.222656 0.5 -0.5 0.5 h -1 c -0.277344 0 -0.5 -0.222656 -0.5 -0.5 c 0 -0.269531 0.210938 -0.488281 0.472656 -0.5 z m 3 0 h 0.027344 h 1 c 0.277344 0 0.5 0.222656 0.5 0.5 s -0.222656 0.5 -0.5 0.5 h -1 c -0.277344 0 -0.5 -0.222656 -0.5 -0.5 c 0 -0.269531 0.210938 -0.488281 0.472656 -0.5 z m 0 0"/>
    <g mask="url(#p)">
        <g clip-path="url(#q)" transform="matrix(1 0 0 1 -426 -280)">
            <path d="m 435.25 288 c -0.136719 0 -0.25 0.113281 -0.25 0.25 v 0.5 c 0 0.136719 0.113281 0.25 0.25 0.25 h 4.5 c 0.136719 0 0.25 -0.113281 0.25 -0.25 v -0.5 c 0 -0.136719 -0.113281 -0.25 -0.25 -0.25 z m 0 3 c -0.136719 0 -0.25 0.113281 -0.25 0.25 v 0.5 c 0 0.136719 0.113281 0.25 0.25 0.25 h 4.5 c 0.136719 0 0.25 -0.113281 0.25 -0.25 v -0.5 c 0 -0.136719 -0.113281 -0.25 -0.25 -0.25 z m 0 0"/>
        </g>
    </g>
    <g mask="url(#r)">
        <g clip-path="url(#s)" transform="matrix(1 0 0 1 -426 -280)">
            <path d="m 463.523438 287 c 0.269531 0.011719 0.476562 0.234375 0.476562 0.5 v 4 c 0 0.277344 0.222656 0.5 0.5 0.5 h 13 c 0.265625 0 0.488281 0.207031 0.5 0.472656 v -3.472656 c 0 -1.109375 -0.890625 -2 -2 -2 z m 0 0"/>
        </g>
    </g>
</svg>
