<?xml version="1.0" encoding="UTF-8"?>
<svg height="24px" viewBox="0 0 24 24" width="24px" xmlns="http://www.w3.org/2000/svg" xmlns:xlink="http://www.w3.org/1999/xlink">
    <filter id="a" height="100%" width="100%" x="0%" y="0%">
        <feColorMatrix color-interpolation-filters="sRGB" values="0 0 0 0 1 0 0 0 0 1 0 0 0 0 1 0 0 0 1 0"/>
    </filter>
    <mask id="b">
        <g filter="url(#a)">
            <path d="m -2.4 -2.4 h 28.8 v 28.8 h -28.8 z" fill-opacity="0.5"/>
        </g>
    </mask>
    <clipPath id="c">
        <path d="m 0 0 h 800 v 800 h -800 z"/>
    </clipPath>
    <mask id="d">
        <g filter="url(#a)">
            <path d="m -2.4 -2.4 h 28.8 v 28.8 h -28.8 z" fill-opacity="0.5"/>
        </g>
    </mask>
    <clipPath id="e">
        <path d="m 0 0 h 800 v 800 h -800 z"/>
    </clipPath>
    <mask id="f">
        <g filter="url(#a)">
            <path d="m -2.4 -2.4 h 28.8 v 28.8 h -28.8 z" fill-opacity="0.5"/>
        </g>
    </mask>
    <clipPath id="g">
        <path d="m 0 0 h 800 v 800 h -800 z"/>
    </clipPath>
    <mask id="h">
        <g filter="url(#a)">
            <path d="m -2.4 -2.4 h 28.8 v 28.8 h -28.8 z" fill-opacity="0.25"/>
        </g>
    </mask>
    <clipPath id="i">
        <path d="m 0 0 h 800 v 800 h -800 z"/>
    </clipPath>
    <mask id="j">
        <g filter="url(#a)">
            <path d="m -2.4 -2.4 h 28.8 v 28.8 h -28.8 z" fill-opacity="0.25"/>
        </g>
    </mask>
    <clipPath id="k">
        <path d="m 0 0 h 800 v 800 h -800 z"/>
    </clipPath>
    <mask id="l">
        <g filter="url(#a)">
            <path d="m -2.4 -2.4 h 28.8 v 28.8 h -28.8 z" fill-opacity="0.75"/>
        </g>
    </mask>
    <clipPath id="m">
        <path d="m 0 0 h 800 v 800 h -800 z"/>
    </clipPath>
    <mask id="n">
        <g filter="url(#a)">
            <path d="m -2.4 -2.4 h 28.8 v 28.8 h -28.8 z" fill-opacity="0.75"/>
        </g>
    </mask>
    <clipPath id="o">
        <path d="m 0 0 h 800 v 800 h -800 z"/>
    </clipPath>
    <mask id="p">
        <g filter="url(#a)">
            <path d="m -2.4 -2.4 h 28.8 v 28.8 h -28.8 z" fill-opacity="0.75"/>
        </g>
    </mask>
    <clipPath id="q">
        <path d="m 0 0 h 800 v 800 h -800 z"/>
    </clipPath>
    <mask id="r">
        <g filter="url(#a)">
            <path d="m -2.4 -2.4 h 28.8 v 28.8 h -28.8 z" fill-opacity="0.75"/>
        </g>
    </mask>
    <clipPath id="s">
        <path d="m 0 0 h 800 v 800 h -800 z"/>
    </clipPath>
    <mask id="t">
        <g filter="url(#a)">
            <path d="m -2.4 -2.4 h 28.8 v 28.8 h -28.8 z" fill-opacity="0.75"/>
        </g>
    </mask>
    <clipPath id="u">
        <path d="m 0 0 h 800 v 800 h -800 z"/>
    </clipPath>
    <mask id="v">
        <g filter="url(#a)">
            <path d="m -2.4 -2.4 h 28.8 v 28.8 h -28.8 z" fill-opacity="0.75"/>
        </g>
    </mask>
    <clipPath id="w">
        <path d="m 0 0 h 800 v 800 h -800 z"/>
    </clipPath>
    <mask id="x">
        <g filter="url(#a)">
            <path d="m -2.4 -2.4 h 28.8 v 28.8 h -28.8 z" fill-opacity="0.75"/>
        </g>
    </mask>
    <clipPath id="y">
        <path d="m 0 0 h 800 v 800 h -800 z"/>
    </clipPath>
    <mask id="z">
        <g filter="url(#a)">
            <path d="m -2.4 -2.4 h 28.8 v 28.8 h -28.8 z" fill-opacity="0.75"/>
        </g>
    </mask>
    <clipPath id="A">
        <path d="m 0 0 h 800 v 800 h -800 z"/>
    </clipPath>
    <g mask="url(#b)">
        <g clip-path="url(#c)" transform="matrix(1 0 0 1 -418 -360)">
            <path d="m 85.007812 309.019531 c -0.550781 0 -1 0.449219 -1 1 v 1.972657 h 0.003907 c -0.003907 0.011718 -0.003907 0.019531 -0.003907 0.027343 c 0 0.550781 0.449219 1 1 1 h 0.875 c 0.855469 -0.027343 1.328126 -0.652343 1.863282 -1.152343 c 0.269531 -0.324219 0.609375 -0.570313 0.984375 -0.738282 v -0.003906 c 0.167969 -0.082031 0.277343 -0.253906 0.277343 -0.445312 c 0 0 0 0 0 -0.003907 c 0 0 0 0 0 -0.003906 c 0 0 0 0 0 -0.003906 c 0 0 0 0 0 -0.003907 c 0 0 0 0 0 -0.003906 c 0 0 0 0 0 -0.003906 v -0.613281 h -0.003906 c 0.003906 -0.007813 0.003906 -0.015625 0.003906 -0.023438 c 0 -0.554687 -0.449218 -1 -1 -1 z m 7 0 c -0.550781 0 -1 0.449219 -1 1 c 0 0.007813 0 0.015625 0.003907 0.027344 h -0.003907 v 0.609375 v 0.027344 c 0 0.1875 0.109376 0.359375 0.277344 0.445312 c 0.375 0.167969 0.714844 0.414063 0.984375 0.738282 c 0.535157 0.503906 1.007813 1.125 1.867188 1.152343 h 0.871093 c 0.550782 0 1 -0.449219 1 -1 c 0 -0.007812 0 -0.015625 -0.003906 -0.023437 h 0.003906 v -1.976563 c 0 -0.550781 -0.449218 -1 -1 -1 z m 0 0"/>
        </g>
    </g>
    <g mask="url(#d)">
        <g clip-path="url(#e)" transform="matrix(1 0 0 1 -418 -360)">
            <path d="m 55.996094 372.175781 v 1.101563 l -1 1 l -1 -1 v -1.09375 c -0.847656 0.300781 -1.519532 0.972656 -1.820313 1.820312 h 1.121094 l 1 1 l -1 1 h -1.121094 c 0.300781 0.847656 0.972657 1.519532 1.820313 1.820313 v -1.140625 l 1 -1 l 1 1 v 1.140625 c 0.847656 -0.300781 1.519531 -0.972657 1.820312 -1.820313 h -1.109375 l -1 -1 l 1 -1 h 1.117188 c -0.300781 -0.855468 -0.972657 -1.527344 -1.828125 -1.828125 z m 0 0"/>
        </g>
    </g>
    <g mask="url(#f)">
        <g clip-path="url(#g)" transform="matrix(1 0 0 1 -418 -360)">
            <path d="m 58 375 c 0 1.65625 -1.34375 3 -3 3 s -3 -1.34375 -3 -3 s 1.34375 -3 3 -3 s 3 1.34375 3 3 z m 0 0"/>
        </g>
    </g>
    <g mask="url(#h)">
        <g clip-path="url(#i)" transform="matrix(1 0 0 1 -418 -360)">
            <path d="m 88 289 c -0.554688 0 -1 0.445312 -1 1 v 3 c 0 0.554688 0.445312 1 1 1 h 4 c 0.554688 0 1 -0.445312 1 -1 v -3 c 0 -0.554688 -0.445312 -1 -1 -1 z m 0 0"/>
        </g>
    </g>
    <g mask="url(#j)">
        <g clip-path="url(#k)" transform="matrix(1 0 0 1 -418 -360)">
            <path d="m 118 374 h 8 v 6 h -8 z m 0 0"/>
        </g>
    </g>
    <g mask="url(#l)">
        <g clip-path="url(#m)" transform="matrix(1 0 0 1 -418 -360)">
            <path d="m 110 370 h 24 v 3 h -24 z m 0 0"/>
        </g>
    </g>
    <g mask="url(#n)">
        <g clip-path="url(#o)" transform="matrix(1 0 0 1 -418 -360)">
            <path d="m 315.527344 395 c 0.265625 0.011719 0.472656 0.234375 0.472656 0.5 v 4 c 0 0.277344 0.222656 0.5 0.5 0.5 h 13 c 0.265625 0 0.488281 0.207031 0.5 0.476562 v -3.476562 c 0 -1.109375 -0.890625 -2 -2 -2 z m 0 0"/>
        </g>
    </g>
    <g mask="url(#p)">
        <g clip-path="url(#q)" transform="matrix(1 0 0 1 -418 -360)">
            <path d="m 342 394.5 v 1.5 c 0 0.277344 -0.003906 0.726562 0.035156 1 c 0.21875 1.53125 1.433594 2.746094 2.964844 2.964844 c 0.273438 0.039062 0.726562 0.039062 1 0 c 1.53125 -0.21875 2.746094 -1.433594 2.964844 -2.964844 c 0.039062 -0.273438 0.035156 -0.722656 0.035156 -1 v -1.5 c 0 -0.277344 -0.214844 -0.566406 -0.480469 -0.640625 c -2.039062 -0.542969 -4.050781 -0.492187 -6.035156 0.011719 c -0.269531 0.066406 -0.484375 0.351562 -0.484375 0.628906 z m 0 0"/>
        </g>
    </g>
    <g mask="url(#r)">
        <g clip-path="url(#s)" transform="matrix(1 0 0 1 -418 -360)">
            <path d="m 342 366.5 v 1.5 c 0 0.277344 -0.003906 0.726562 0.035156 1 c 0.21875 1.53125 1.433594 2.746094 2.964844 2.964844 c 0.273438 0.039062 0.726562 0.039062 1 0 c 1.53125 -0.21875 2.746094 -1.433594 2.964844 -2.964844 c 0.039062 -0.273438 0.035156 -0.722656 0.035156 -1 v -1.5 c 0 -0.277344 -0.214844 -0.566406 -0.480469 -0.640625 c -2.039062 -0.542969 -4.050781 -0.492187 -6.035156 0.011719 c -0.269531 0.066406 -0.484375 0.351562 -0.484375 0.628906 z m 0 0"/>
        </g>
    </g>
    <g mask="url(#t)">
        <g clip-path="url(#u)" transform="matrix(1 0 0 1 -418 -360)">
            <path d="m 315.25 368 c -0.136719 0 -0.25 0.113281 -0.25 0.25 v 0.5 c 0 0.136719 0.113281 0.25 0.25 0.25 h 4.5 c 0.136719 0 0.25 -0.113281 0.25 -0.25 v -0.5 c 0 -0.136719 -0.113281 -0.25 -0.25 -0.25 z m 0 3 c -0.136719 0 -0.25 0.113281 -0.25 0.25 v 0.5 c 0 0.136719 0.113281 0.25 0.25 0.25 h 4.5 c 0.136719 0 0.25 -0.113281 0.25 -0.25 v -0.5 c 0 -0.136719 -0.113281 -0.25 -0.25 -0.25 z m 0 0"/>
        </g>
    </g>
    <g mask="url(#v)">
        <g clip-path="url(#w)" transform="matrix(1 0 0 1 -418 -360)">
            <path d="m 315.527344 430 c 0.265625 0.011719 0.472656 0.234375 0.472656 0.5 v 4 c 0 0.277344 0.222656 0.5 0.5 0.5 h 13 c 0.265625 0 0.488281 0.207031 0.5 0.472656 v -3.472656 c 0 -1.109375 -0.890625 -2 -2 -2 z m 0 0"/>
        </g>
    </g>
    <g mask="url(#x)">
        <g clip-path="url(#y)" transform="matrix(1 0 0 1 -418 -360)">
            <path d="m 343.523438 423 c 0.269531 0.011719 0.476562 0.234375 0.476562 0.5 v 4 c 0 0.277344 0.222656 0.5 0.5 0.5 h 13 c 0.265625 0 0.488281 0.207031 0.5 0.472656 v -3.472656 c 0 -1.109375 -0.890625 -2 -2 -2 z m 0 0"/>
        </g>
    </g>
    <path d="m 1 7 c -0.554688 0 -1 0.445312 -1 1 v 8 c 0 0.554688 0.445312 1 1 1 h 22 c 0.554688 0 1 -0.445312 1 -1 v -8 c 0 -0.554688 -0.445312 -1 -1 -1 z m 3.5 2 h 3 c 0.832031 0 1.5 0.667969 1.5 1.5 v 3 c 0 0.832031 -0.667969 1.5 -1.5 1.5 h -3 c -0.832031 0 -1.5 -0.667969 -1.5 -1.5 v -3 c 0 -0.832031 0.667969 -1.5 1.5 -1.5 z m 12 3 c 0.828125 0 1.5 0.671875 1.5 1.5 s -0.671875 1.5 -1.5 1.5 s -1.5 -0.671875 -1.5 -1.5 s 0.671875 -1.5 1.5 -1.5 z m 4 0 c 0.828125 0 1.5 0.671875 1.5 1.5 s -0.671875 1.5 -1.5 1.5 s -1.5 -0.671875 -1.5 -1.5 s 0.671875 -1.5 1.5 -1.5 z m 0 0"/>
    <g mask="url(#z)">
        <g clip-path="url(#A)" transform="matrix(1 0 0 1 -418 -360)">
            <path d="m 425 372 c 0 0.550781 -0.449219 1 -1 1 s -1 -0.449219 -1 -1 s 0.449219 -1 1 -1 s 1 0.449219 1 1 z m 0 0"/>
        </g>
    </g>
</svg>
