<?xml version="1.0" encoding="UTF-8" standalone="no"?>
<svg
   height="16px"
   viewBox="0 0 16 16"
   width="16px"
   version="1.1"
   id="svg1"
   sodipodi:docname="portrait-symbolic.svg"
   inkscape:version="1.3 (0e150ed6c4, 2023-07-21)"
   xmlns:inkscape="http://www.inkscape.org/namespaces/inkscape"
   xmlns:sodipodi="http://sodipodi.sourceforge.net/DTD/sodipodi-0.dtd"
   xmlns="http://www.w3.org/2000/svg"
   xmlns:svg="http://www.w3.org/2000/svg">
  <defs
     id="defs1" />
  <sodipodi:namedview
     id="namedview1"
     pagecolor="#ffffff"
     bordercolor="#999999"
     borderopacity="1"
     inkscape:showpageshadow="0"
     inkscape:pageopacity="0"
     inkscape:pagecheckerboard="0"
     inkscape:deskcolor="#d1d1d1"
     showgrid="false"
     showguides="true"
     inkscape:zoom="49.516419"
     inkscape:cx="14.510339"
     inkscape:cy="4.3318965"
     inkscape:current-layer="svg1" />
  <path
     id="rect5"
     style="font-variation-settings:'wght' 800;fill:#000000;stroke-width:1;stroke-linecap:round;stroke-opacity:0.154435"
     d="M 2,13.5 C 2,14.884999 3.1150014,16 4.5,16 h 7 C 12.884999,16 14,14.884999 14,13.5 V 2.5 C 14,1.115001 12.884999,0 11.5,0 h -7 C 3.1150014,0 2,1.115001 2,2.5 Z m 1,0 A 1.5,1.5 0 0 1 4.5,12 1.5,1.5 0 0 1 6,13.5 1.5,1.5 0 0 1 4.5,15 1.5,1.5 0 0 1 3,13.5 Z M 5,10 V 6 C 5,5.446002 5.4460012,5 6,5 h 4 c 0.553998,0 1,0.446002 1,1 v 4 c 0,0.553999 -0.446002,1 -1,1 H 6 C 5.4460012,11 5,10.553999 5,10 Z m 5,3.5 A 1.5,1.5 0 0 1 11.5,12 1.5,1.5 0 0 1 13,13.5 1.5,1.5 0 0 1 11.5,15 1.5,1.5 0 0 1 10,13.5 Z m 0,-11 A 1.5,1.5 0 0 1 11.5,1 1.5,1.5 0 0 1 13,2.5 1.5,1.5 0 0 1 11.5,4 1.5,1.5 0 0 1 10,2.5 Z" />
</svg>
