{
    "name": "pcap",
    "buildsystem": "autotools",
    "config-opts": [
        "--disable-shared",
        "--disable-dbus"
    ],
    "sources": [
        {
            "type": "archive",
            "url": "https://www.tcpdump.org/release/libpcap-1.10.4.tar.gz",
            "sha256": "ed19a0383fad72e3ad435fd239d7cd80d64916b87269550159d20e47160ebe5f"
        }
    ]
}