{
    "name" : "bsnes",
    "buildsystem" : "simple",
    "subdir" : "bsnes",
    "build-commands" : [
        "make -j $FLATPAK_BUILDER_N_JOBS target=highscore binary=library build=performance local=false platform=linux",
        "make target=highscore binary=library build=performance libdir=$FLATPAK_DEST/lib install local=false platform=linux"
    ],
    "sources" : [
        {
            "type" : "git",
            "url" : "https://github.com/alice-mkh/bsnes.git",
            "branch" : "highscore"
        }
    ]
}