{
    "name" : "mgba",
    "buildsystem" : "cmake-ninja",
    "config-opts": [
        "-DUSE_DEBUGGERS=OFF",
        "-DUSE_EDITLINE=OFF",
        "-DUSE_GDB_STUB=OFF",
        "-DUSE_ZLIB=OFF",
        "-DUSE_MINIZIP=OFF",
        "-DUSE_PNG=OFF",
        "-DUSE_LIBZIP=OFF",
        "-DUSE_SQLITE3=OFF",
        "-DUSE_ELF=OFF",
        "-DUSE_LUA=OFF",
        "-DUSE_JSON_C=OFF",
        "-DUSE_LZMA=OFF",
        "-DUSE_DISCORD_RPC=OFF",
        "-DENABLE_SCRIPTING=OFF",
        "-DBUILD_QT=OFF",
        "-DBUILD_SDL=OFF",
        "-DBUILD_HIGHSCORE=ON",
        "-DSKIP_LIBRARY=ON",
        "-DCMAKE_BUILD_TYPE=Release"
    ],
    "cleanup" : [
        "/share/doc/mGBA"
    ],
    "sources" : [
        {
            "type" : "git",
            "url" : "https://github.com/alice-mkh/mgba.git",
            "branch" : "highscore"
        }
    ]
}