{
    "name" : "mupen64plus",
    "skip-arches": [
        "aarch64",
        "arm"
    ],
    "buildsystem" : "meson",
    "sources" : [
        {
            "type" : "git",
            "url" : "https://github.com/alice-mkh/mupen64plus-highscore.git",
            "branch" : "highscore"
        }
    ]
}